\relax 
\providecommand\hyper@newdestlabel[2]{}
\providecommand\HyperFirstAtBeginDocument{\AtBeginDocument}
\HyperFirstAtBeginDocument{\ifx\hyper@anchor\@undefined
\global\let\oldnewlabel\newlabel
\gdef\newlabel#1#2{\newlabelxx{#1}#2}
\gdef\newlabelxx#1#2#3#4#5#6{\oldnewlabel{#1}{{#2}{#3}}}
\AtEndDocument{\ifx\hyper@anchor\@undefined
\let\newlabel\oldnewlabel
\fi}
\fi}
\global\let\hyper@last\relax 
\gdef\HyperFirstAtBeginDocument#1{#1}
\providecommand*\HyPL@Entry[1]{}
\HyPL@Entry{0<</S/r>>}
\providecommand\@newglossary[4]{}
\@newglossary{main}{glg}{gls}{glo}
\providecommand\@glsorder[1]{}
\providecommand\@istfilename[1]{}
\@istfilename{last-first-ProjACRON.ist}
\@glsorder{word}
\providecommand \oddpage@label [2]{}
\@writefile{toc}{\contentsline {chapter}{Περίληψη}{iii}{chapter*.1}\protected@file@percent }
\@writefile{toc}{\contentsline {chapter}{Κατάλογος πινάκων}{x}{chapter*.3}\protected@file@percent }
\@writefile{toc}{\contentsline {chapter}{Κατάλογος σχημάτων}{xi}{chapter*.4}\protected@file@percent }
\@writefile{toc}{\contentsline {chapter}{Ευχαριστίες}{xii}{chapter*.5}\protected@file@percent }
\HyPL@Entry{19<</S/D>>}
\@writefile{toc}{\contentsline {chapter}{\numberline {1}Εισαγωγή}{1}{chapter.1}\protected@file@percent }
\@writefile{lof}{\addvspace {10\p@ }}
\@writefile{lot}{\addvspace {10\p@ }}
\@writefile{loa}{\addvspace {10\p@ }}
\newlabel{sec:introduction}{{1}{1}{Εισαγωγή}{chapter.1}{}}
\newlabel{sec:introduction@cref}{{[chapter][1][]1}{[1][1][]1}}
\@writefile{toc}{\contentsline {chapter}{\numberline {2}Θεωρία}{2}{chapter.2}\protected@file@percent }
\@writefile{lof}{\addvspace {10\p@ }}
\@writefile{lot}{\addvspace {10\p@ }}
\@writefile{loa}{\addvspace {10\p@ }}
\newlabel{sec:theory}{{2}{2}{Θεωρία}{chapter.2}{}}
\newlabel{sec:theory@cref}{{[chapter][2][]2}{[1][2][]2}}
\@writefile{toc}{\contentsline {section}{\numberline {2.1}Γενικά}{2}{section.2.1}\protected@file@percent }
\@writefile{toc}{\contentsline {section}{\numberline {2.2}Transformer}{3}{section.2.2}\protected@file@percent }
\@writefile{toc}{\contentsline {subsection}{\numberline {2.2.1}Attention is all you need}{3}{subsection.2.2.1}\protected@file@percent }
\@writefile{lof}{\contentsline {figure}{\numberline {2.1}{\ignorespaces Attention συνάρτηση\relax }}{4}{figure.2.1}\protected@file@percent }
\@writefile{toc}{\contentsline {subsection}{\numberline {2.2.2}Swin Ιεραρχικός Transformer με χρήση shifted windows}{5}{subsection.2.2.2}\protected@file@percent }
\@writefile{toc}{\contentsline {subsection}{\numberline {2.2.3}Attentional συγχώνευση χαρακτηριστικών}{6}{subsection.2.2.3}\protected@file@percent }
\@writefile{toc}{\contentsline {subsection}{\numberline {2.2.4}BotNet Αρχιτεκτονική}{6}{subsection.2.2.4}\protected@file@percent }
\@writefile{toc}{\contentsline {subsection}{\numberline {2.2.5}CvT Αρχιτεκτονική}{7}{subsection.2.2.5}\protected@file@percent }
\@writefile{toc}{\contentsline {section}{\numberline {2.3}Αναγνώριση προσώπου}{9}{section.2.3}\protected@file@percent }
\@writefile{toc}{\contentsline {subsection}{\numberline {2.3.1}Φίλτρα Gabor}{9}{subsection.2.3.1}\protected@file@percent }
\@writefile{lof}{\contentsline {figure}{\numberline {2.2}{\ignorespaces Παράδειγμα Haar χαρακτηριστικών\relax }}{10}{figure.caption.8}\protected@file@percent }
\providecommand*\caption@xref[2]{\@setref\relax\@undefined{#1}}
\newlabel{fig:my_figure}{{2.2}{10}{Παράδειγμα Haar χαρακτηριστικών\relax }{figure.caption.8}{}}
\newlabel{fig:my_figure@cref}{{[figure][2][2]2.2}{[1][10][]10}}
\@writefile{toc}{\contentsline {subsection}{\numberline {2.3.2}Αλγόριθμος Viola-Jones}{10}{subsection.2.3.2}\protected@file@percent }
\@writefile{toc}{\contentsline {subsection}{\numberline {2.3.3}Κατασκευαστικά αυτοσυσχετιζόμενα νευρωνικά δίκτυα}{11}{subsection.2.3.3}\protected@file@percent }
\@writefile{lof}{\contentsline {figure}{\numberline {2.3}{\ignorespaces Δομή CANet Αλγορίθμου\relax }}{14}{figure.caption.9}\protected@file@percent }
\newlabel{fig:my_figure}{{2.3}{14}{Δομή CANet Αλγορίθμου\relax }{figure.caption.9}{}}
\newlabel{fig:my_figure@cref}{{[figure][3][2]2.3}{[1][13][]14}}
\@writefile{toc}{\contentsline {subsection}{\numberline {2.3.4}Πυραμιδωτά νευρωνικά δίκτυα}{14}{subsection.2.3.4}\protected@file@percent }
\@writefile{lot}{\contentsline {table}{\numberline {1}{\ignorespaces Αλγόριθμοι Εκπαίδευσης PYRANET\relax }}{16}{table.caption.10}\protected@file@percent }
\newlabel{tab:pyranet}{{1}{16}{Αλγόριθμοι Εκπαίδευσης PYRANET\relax }{table.caption.10}{}}
\newlabel{tab:pyranet@cref}{{[table][1][2]1}{[1][15][]16}}
\@writefile{toc}{\contentsline {section}{\numberline {2.4}Νευρωνικά Δίκτυα}{17}{section.2.4}\protected@file@percent }
\@writefile{toc}{\contentsline {subsection}{\numberline {2.4.1}Αυτόματη αναγνώριση συναισθήματος}{17}{subsection.2.4.1}\protected@file@percent }
\@writefile{toc}{\contentsline {subsection}{\numberline {2.4.2}Αυτόματη αναγνώριση από την \gls {facial expression} }{17}{subsection.2.4.2}\protected@file@percent }
\@writefile{toc}{\contentsline {section}{\numberline {2.5}Συνελλικτικά Δίκτυα}{18}{section.2.5}\protected@file@percent }
\@writefile{toc}{\contentsline {subsection}{\numberline {2.5.1}Συνελλικτικό Δίκτυο δύο επιπέδων}{18}{subsection.2.5.1}\protected@file@percent }
\@writefile{lot}{\contentsline {table}{\numberline {2}{\ignorespaces Παράδειγμα kernel\relax }}{19}{table.caption.11}\protected@file@percent }
\newlabel{tab:kernel}{{2}{19}{Παράδειγμα kernel\relax }{table.caption.11}{}}
\newlabel{tab:kernel@cref}{{[table][2][2]2}{[1][19][]19}}
\newlabel{eq:example}{{2.2}{19}{Συνελλικτικό Δίκτυο δύο επιπέδων}{equation.2.5.2}{}}
\newlabel{eq:example@cref}{{[equation][2][2]2.2}{[1][19][]19}}
\@writefile{lof}{\contentsline {figure}{\numberline {2.4}{\ignorespaces Μαθηματικός τύπος Haugh Μετασχηματισμού\relax }}{19}{figure.2.4}\protected@file@percent }
\@writefile{toc}{\contentsline {subsection}{\numberline {2.5.2}Υβριδικό συνελλικτικό δίκτυο με SIFT αθροιστή }{19}{subsection.2.5.2}\protected@file@percent }
\@writefile{lof}{\contentsline {figure}{\numberline {2.5}{\ignorespaces CNNSIFT\relax }}{21}{figure.caption.12}\protected@file@percent }
\newlabel{fig:dsd}{{2.5}{21}{CNNSIFT\relax }{figure.caption.12}{}}
\newlabel{fig:dsd@cref}{{[figure][5][2]2.5}{[1][20][]21}}
\@writefile{toc}{\contentsline {subsection}{\numberline {2.5.3}Συνελλικτικά Δικτυα και υπολογισμός αιχμών εικόνας}{21}{subsection.2.5.3}\protected@file@percent }
\@writefile{toc}{\contentsline {subsection}{\numberline {2.5.4}Αυτοκωδικοποιητές}{23}{subsection.2.5.4}\protected@file@percent }
\@writefile{toc}{\contentsline {subsection}{\numberline {2.5.5}Πολλαπλά στιγμιότυπα εικόνων από βίντεο και \gls {graph}}{23}{subsection.2.5.5}\protected@file@percent }
\@writefile{toc}{\contentsline {section}{\numberline {2.6}Εξαγωγή χαρακτηριστικών}{24}{section.2.6}\protected@file@percent }
\@writefile{toc}{\contentsline {subsection}{\numberline {2.6.1}Εξαγωγή χαρακτηριστικών και \gls {expression recognition}}{24}{subsection.2.6.1}\protected@file@percent }
\newlabel{eq:example}{{2.3}{25}{Εξαγωγή χαρακτηριστικών και \gls {expression recognition}}{equation.2.6.3}{}}
\newlabel{eq:example@cref}{{[equation][3][2]2.3}{[1][25][]25}}
\@writefile{lof}{\contentsline {figure}{\numberline {2.6}{\ignorespaces Μαθηματικός τύπος αμοιβαίας πληροφορίας\relax }}{25}{figure.2.6}\protected@file@percent }
\@writefile{toc}{\contentsline {subsection}{\numberline {2.6.2}Εξαγωγή γεωμετρικών χαρακτηριστικών}{25}{subsection.2.6.2}\protected@file@percent }
\@writefile{toc}{\contentsline {subsection}{\numberline {2.6.3}Αναγνώριση προσώπου και συναισθήματος με χρήση Markov τυχαίων πεδίων}{26}{subsection.2.6.3}\protected@file@percent }
\newlabel{eq:example}{{2.4}{26}{Αναγνώριση προσώπου και συναισθήματος με χρήση Markov τυχαίων πεδίων}{equation.2.6.4}{}}
\newlabel{eq:example@cref}{{[equation][4][2]2.4}{[1][26][]26}}
\@writefile{lof}{\contentsline {figure}{\numberline {2.8}{\ignorespaces Μάσκα για την περιοχή των ματιών\relax }}{26}{figure.2.8}\protected@file@percent }
\@writefile{lof}{\contentsline {figure}{\numberline {2.7}{\ignorespaces Πίνακας απόφασης\relax }}{27}{figure.caption.13}\protected@file@percent }
\newlabel{fig:dsd}{{2.7}{27}{Πίνακας απόφασης\relax }{figure.caption.13}{}}
\newlabel{fig:dsd@cref}{{[figure][7][2]2.7}{[1][26][]27}}
\@writefile{toc}{\contentsline {section}{\numberline {2.7}Μονάδες δράσης}{27}{section.2.7}\protected@file@percent }
\@writefile{toc}{\contentsline {subsection}{\numberline {2.7.1}Μονάδες δράσης και ορισμένη συναισθηματική έκφραση}{27}{subsection.2.7.1}\protected@file@percent }
\@writefile{lof}{\contentsline {figure}{\numberline {2.9}{\ignorespaces Πίνακας απαραίτητων μονάδων δράσης\relax }}{28}{figure.caption.14}\protected@file@percent }
\newlabel{fig:dsd}{{2.9}{28}{Πίνακας απαραίτητων μονάδων δράσης\relax }{figure.caption.14}{}}
\newlabel{fig:dsd@cref}{{[figure][9][2]2.9}{[1][28][]28}}
\@writefile{toc}{\contentsline {subsection}{\numberline {2.7.2}Μονάδες δράσης και νευρωνικά δίκτυα}{28}{subsection.2.7.2}\protected@file@percent }
\@writefile{lof}{\contentsline {figure}{\numberline {2.10}{\ignorespaces Μονάδες δράσης προσώπου\relax }}{29}{figure.caption.15}\protected@file@percent }
\newlabel{fig:dsd}{{2.10}{29}{Μονάδες δράσης προσώπου\relax }{figure.caption.15}{}}
\newlabel{fig:dsd@cref}{{[figure][10][2]2.10}{[1][29][]29}}
\@writefile{toc}{\contentsline {subsection}{\numberline {2.7.3}Μονάδες δράσης και εξειδικευμένα βαθιά νευρωνικά δίκτυα}{30}{subsection.2.7.3}\protected@file@percent }
\@writefile{toc}{\contentsline {chapter}{\numberline {3}Μέθοδοι}{31}{chapter.3}\protected@file@percent }
\@writefile{lof}{\addvspace {10\p@ }}
\@writefile{lot}{\addvspace {10\p@ }}
\@writefile{loa}{\addvspace {10\p@ }}
\newlabel{sec:method}{{3}{31}{Μέθοδοι}{chapter.3}{}}
\newlabel{sec:method@cref}{{[chapter][3][]3}{[1][31][]31}}
\@writefile{toc}{\contentsline {section}{\numberline {3.1}Οπισθοδιάδοση}{31}{section.3.1}\protected@file@percent }
\@writefile{toc}{\contentsline {subsection}{\numberline {3.1.1}Εισαγωγή}{31}{subsection.3.1.1}\protected@file@percent }
\@writefile{toc}{\contentsline {subsection}{\numberline {3.1.2}Αρχικοποίηση βαρών}{32}{subsection.3.1.2}\protected@file@percent }
\@writefile{toc}{\contentsline {subsection}{\numberline {3.1.3}Πρόβλεψη τιμών και υπολογισμός σφάλματος}{33}{subsection.3.1.3}\protected@file@percent }
\newlabel{eq:example}{{3.1}{33}{Πρόβλεψη τιμών και υπολογισμός σφάλματος}{equation.3.1.1}{}}
\newlabel{eq:example@cref}{{[equation][1][3]3.1}{[1][33][]33}}
\@writefile{lof}{\contentsline {figure}{\numberline {3.1}{\ignorespaces Μέσο Τετραγωνικό Σφάλμα\relax }}{33}{figure.3.1}\protected@file@percent }
\@writefile{toc}{\contentsline {subsection}{\numberline {3.1.4}Διόρθωση βαρών}{33}{subsection.3.1.4}\protected@file@percent }
\newlabel{eq:example}{{3.2}{34}{Διόρθωση βαρών}{equation.3.1.2}{}}
\newlabel{eq:example@cref}{{[equation][2][3]3.2}{[1][34][]34}}
\@writefile{lof}{\contentsline {figure}{\numberline {3.2}{\ignorespaces Τύπος ενημέρωσης βαρών\relax }}{34}{figure.3.2}\protected@file@percent }
\newlabel{eq:example}{{3.3}{35}{Τύπος ενημέρωσης βαρών\relax }{equation.3.1.3}{}}
\newlabel{eq:example@cref}{{[equation][3][3]3.3}{[1][35][]35}}
\@writefile{lof}{\contentsline {figure}{\numberline {3.3}{\ignorespaces Υπολογισμός μερικής παραγώγου σφάλματος ως προς βάρος\relax }}{35}{figure.3.3}\protected@file@percent }
\@writefile{toc}{\contentsline {subsection}{\numberline {3.1.5}Τερματισμός εκπαίδευσης}{36}{subsection.3.1.5}\protected@file@percent }
\@writefile{toc}{\contentsline {section}{\numberline {3.2}Μέθοδος Πρόβλεψης Συναισθήματος}{37}{section.3.2}\protected@file@percent }
\@writefile{toc}{\contentsline {subsection}{\numberline {3.2.1}Προεπεξεργασία εικόνων}{37}{subsection.3.2.1}\protected@file@percent }
\@writefile{toc}{\contentsline {subsection}{\numberline {3.2.2}Εκπαίδευση μοντέλου}{37}{subsection.3.2.2}\protected@file@percent }
\@writefile{toc}{\contentsline {subsection}{\numberline {3.2.3}Πρόβλεψη}{38}{subsection.3.2.3}\protected@file@percent }
\@writefile{toc}{\contentsline {chapter}{\numberline {4}Πειράματα}{39}{chapter.4}\protected@file@percent }
\@writefile{lof}{\addvspace {10\p@ }}
\@writefile{lot}{\addvspace {10\p@ }}
\@writefile{loa}{\addvspace {10\p@ }}
\newlabel{sec:experiments}{{4}{39}{Πειράματα}{chapter.4}{}}
\newlabel{sec:experiments@cref}{{[chapter][4][]4}{[1][39][]39}}
\@writefile{toc}{\contentsline {section}{\numberline {4.1}Οργάνωση πειραμάτων}{39}{section.4.1}\protected@file@percent }
\@writefile{toc}{\contentsline {subsection}{\numberline {4.1.1}Δεδομένα}{39}{subsection.4.1.1}\protected@file@percent }
\@writefile{toc}{\contentsline {subsection}{\numberline {4.1.2}Πείραμα 1- Custom νευρωνικό δίκτυο με 7 συναισθήματα}{40}{subsection.4.1.2}\protected@file@percent }
\@writefile{toc}{\contentsline {subsection}{\numberline {4.1.3}Πείραμα 2- Custom νευρωνικό δίκτυο με 4 συναισθήματα}{40}{subsection.4.1.3}\protected@file@percent }
\@writefile{toc}{\contentsline {subsection}{\numberline {4.1.4}Πείραμα 3- Custom νευρωνικό δίκτυο με 7 συναισθήματα και επιλυτές}{41}{subsection.4.1.4}\protected@file@percent }
\@writefile{toc}{\contentsline {subsection}{\numberline {4.1.5}Πείραμα 4- Custom νευρωνικό δίκτυο με 7 συναισθήματα επιτροπή}{41}{subsection.4.1.5}\protected@file@percent }
\@writefile{toc}{\contentsline {subsection}{\numberline {4.1.6}Πείραμα 5- Χρήση Flux για νευρωνικό δίκτυο με 7 συναισθήματα}{42}{subsection.4.1.6}\protected@file@percent }
\@writefile{toc}{\contentsline {subsection}{\numberline {4.1.7}Πείραμα 6- Χρήση Flux για νευρωνικό δίκτυο με 4 συναισθήματα}{42}{subsection.4.1.7}\protected@file@percent }
\@writefile{toc}{\contentsline {subsection}{\numberline {4.1.8}Πείραμα 7- Χρήση Flux για νευρωνικό δίκτυο με 7 συναισθήματα και επιλυτές}{42}{subsection.4.1.8}\protected@file@percent }
\@writefile{toc}{\contentsline {subsection}{\numberline {4.1.9}Πείραμα 8- Χρήση Flux για νευρωνικό δίκτυο με 7 συναισθήματα επιτροπή}{42}{subsection.4.1.9}\protected@file@percent }
\@writefile{toc}{\contentsline {section}{\numberline {4.2}Χαρακτηριστικά Υπολογιστή}{43}{section.4.2}\protected@file@percent }
\@writefile{toc}{\contentsline {section}{\numberline {4.3}Αποτελέσματα Πειραμάτων}{43}{section.4.3}\protected@file@percent }
\@writefile{toc}{\contentsline {subsection}{\numberline {4.3.1}Πείραμα 1}{43}{subsection.4.3.1}\protected@file@percent }
\@writefile{lot}{\contentsline {table}{\numberline {1}{\ignorespaces Πίνακας Σύγχυσης Πρόβλεψης Συναισθήματος Ανάμεσα Σε 7 Συναισθήματα\relax }}{43}{table.caption.16}\protected@file@percent }
\newlabel{tab:Πείραμα 1 Πίνακας Σύγχυσης}{{1}{43}{Πίνακας Σύγχυσης Πρόβλεψης Συναισθήματος Ανάμεσα Σε 7 Συναισθήματα\relax }{table.caption.16}{}}
\newlabel{tab:Πείραμα 1 Πίνακας Σύγχυσης@cref}{{[table][1][4]1}{[1][43][]43}}
\@writefile{toc}{\contentsline {subsection}{\numberline {4.3.2}Πείραμα 2}{43}{subsection.4.3.2}\protected@file@percent }
\@writefile{lot}{\contentsline {table}{\numberline {2}{\ignorespaces Πίνακας Σύγχυσης Πρόβλεψης Συναισθήματος Ανάμεσα Σε 4 Συναισθήματα\relax }}{43}{table.caption.17}\protected@file@percent }
\newlabel{tab:Πείραμα 2 Πίνακας Σύγχυσης}{{2}{43}{Πίνακας Σύγχυσης Πρόβλεψης Συναισθήματος Ανάμεσα Σε 4 Συναισθήματα\relax }{table.caption.17}{}}
\newlabel{tab:Πείραμα 2 Πίνακας Σύγχυσης@cref}{{[table][2][4]2}{[1][43][]43}}
\@writefile{toc}{\contentsline {subsection}{\numberline {4.3.3}Πείραμα 3}{44}{subsection.4.3.3}\protected@file@percent }
\@writefile{lot}{\contentsline {table}{\numberline {3}{\ignorespaces Πίνακας Σύγχυσης Πρόβλεψης Συναισθήματος Ανάμεσα Σε 7 Συναισθήματα Με Επιλυτές\relax }}{44}{table.caption.18}\protected@file@percent }
\newlabel{tab:Πείραμα 3 Πίνακας Σύγχυσης}{{3}{44}{Πίνακας Σύγχυσης Πρόβλεψης Συναισθήματος Ανάμεσα Σε 7 Συναισθήματα Με Επιλυτές\relax }{table.caption.18}{}}
\newlabel{tab:Πείραμα 3 Πίνακας Σύγχυσης@cref}{{[table][3][4]3}{[1][43][]44}}
\@writefile{toc}{\contentsline {subsection}{\numberline {4.3.4}Πείραμε 4}{44}{subsection.4.3.4}\protected@file@percent }
\@writefile{lot}{\contentsline {table}{\numberline {4}{\ignorespaces Πίνακας Σύγχυσης Πρόβλεψης Συναισθήματος Ανάμεσα Σε 7 Συναισθήματα Με Επιτροπή 7 μοντέλων\relax }}{44}{table.caption.19}\protected@file@percent }
\newlabel{tab:Πείραμα 4 Πίνακας Σύγχυσης}{{4}{44}{Πίνακας Σύγχυσης Πρόβλεψης Συναισθήματος Ανάμεσα Σε 7 Συναισθήματα Με Επιτροπή 7 μοντέλων\relax }{table.caption.19}{}}
\newlabel{tab:Πείραμα 4 Πίνακας Σύγχυσης@cref}{{[table][4][4]4}{[1][44][]44}}
\@writefile{toc}{\contentsline {subsection}{\numberline {4.3.5}Πείραμε 5}{45}{subsection.4.3.5}\protected@file@percent }
\@writefile{lot}{\contentsline {table}{\numberline {5}{\ignorespaces Πίνακας Σύγχυσης Πρόβλεψης Συναισθήματος Ανάμεσα Σε 7 Συναισθήματα\relax }}{45}{table.caption.20}\protected@file@percent }
\newlabel{tab:Πείραμα 1 Πίνακας Σύγχυσης}{{5}{45}{Πίνακας Σύγχυσης Πρόβλεψης Συναισθήματος Ανάμεσα Σε 7 Συναισθήματα\relax }{table.caption.20}{}}
\newlabel{tab:Πείραμα 1 Πίνακας Σύγχυσης@cref}{{[table][5][4]5}{[1][44][]45}}
\@writefile{toc}{\contentsline {subsection}{\numberline {4.3.6}Πείραμε 6}{45}{subsection.4.3.6}\protected@file@percent }
\@writefile{lot}{\contentsline {table}{\numberline {6}{\ignorespaces Πίνακας Σύγχυσης Πρόβλεψης Συναισθήματος Ανάμεσα Σε 4 Συναισθήματα\relax }}{45}{table.caption.21}\protected@file@percent }
\newlabel{tab:Πείραμα 6 Πίνακας Σύγχυσης}{{6}{45}{Πίνακας Σύγχυσης Πρόβλεψης Συναισθήματος Ανάμεσα Σε 4 Συναισθήματα\relax }{table.caption.21}{}}
\newlabel{tab:Πείραμα 6 Πίνακας Σύγχυσης@cref}{{[table][6][4]6}{[1][45][]45}}
\@writefile{toc}{\contentsline {subsection}{\numberline {4.3.7}Πείραμε 7}{46}{subsection.4.3.7}\protected@file@percent }
\@writefile{lot}{\contentsline {table}{\numberline {7}{\ignorespaces Πίνακας Σύγχυσης Πρόβλεψης Συναισθήματος Ανάμεσα Σε 7 Συναισθήματα\relax }}{46}{table.caption.22}\protected@file@percent }
\newlabel{tab:Πείραμα 1 Πίνακας Σύγχυσης}{{7}{46}{Πίνακας Σύγχυσης Πρόβλεψης Συναισθήματος Ανάμεσα Σε 7 Συναισθήματα\relax }{table.caption.22}{}}
\newlabel{tab:Πείραμα 1 Πίνακας Σύγχυσης@cref}{{[table][7][4]7}{[1][45][]46}}
\@writefile{toc}{\contentsline {subsection}{\numberline {4.3.8}Πείραμε 8}{46}{subsection.4.3.8}\protected@file@percent }
\@writefile{lot}{\contentsline {table}{\numberline {8}{\ignorespaces Πίνακας Σύγχυσης Πρόβλεψης Συναισθήματος Ανάμεσα Σε 7 Συναισθήματα με Επιτροπή 7 μοντέλων\relax }}{46}{table.caption.23}\protected@file@percent }
\newlabel{tab:Πείραμα 1 Πίνακας Σύγχυσης}{{8}{46}{Πίνακας Σύγχυσης Πρόβλεψης Συναισθήματος Ανάμεσα Σε 7 Συναισθήματα με Επιτροπή 7 μοντέλων\relax }{table.caption.23}{}}
\newlabel{tab:Πείραμα 1 Πίνακας Σύγχυσης@cref}{{[table][8][4]8}{[1][46][]46}}
\@writefile{toc}{\contentsline {chapter}{\numberline {5}Συμπεράσματα}{47}{chapter.5}\protected@file@percent }
\@writefile{lof}{\addvspace {10\p@ }}
\@writefile{lot}{\addvspace {10\p@ }}
\@writefile{loa}{\addvspace {10\p@ }}
\newlabel{sec:discussion}{{5}{47}{Συμπεράσματα}{chapter.5}{}}
\newlabel{sec:discussion@cref}{{[chapter][5][]5}{[1][47][]47}}
\@writefile{toc}{\contentsline {section}{\numberline {5.1}Συζήτηση}{47}{section.5.1}\protected@file@percent }
\@writefile{toc}{\contentsline {section}{\numberline {5.2}Συμπερασμάτα}{48}{section.5.2}\protected@file@percent }
\@writefile{toc}{\contentsline {section}{\numberline {5.3}Μελοντικές επεκτάσεις}{49}{section.5.3}\protected@file@percent }
\@writefile{toc}{\contentsline {chapter}{\numberline {\MakeUppercase    []{α\anw@true  \anw@print  \relax }}Πρώτο παράρτημα}{50}{appendix.Alph1}\protected@file@percent }
\@writefile{lof}{\addvspace {10\p@ }}
\@writefile{lot}{\addvspace {10\p@ }}
\@writefile{loa}{\addvspace {10\p@ }}
\newlabel{appdix:first}{{\MakeUppercase    []{α\anw@true  \anw@print  \relax }}{50}{Πρώτο παράρτημα}{appendix.Alph1}{}}
\newlabel{appdix:first@cref}{{[appendix][1][2147483647]\MakeUppercase    []{α\anw@true  \anw@print  \relax }}{[1][50][]50}}
\@writefile{toc}{\contentsline {chapter}{\numberline {\MakeUppercase    []{β\anw@true  \anw@print  \relax }}Δεύτερο παράρτημα}{51}{appendix.Alph2}\protected@file@percent }
\@writefile{lof}{\addvspace {10\p@ }}
\@writefile{lot}{\addvspace {10\p@ }}
\@writefile{loa}{\addvspace {10\p@ }}
\newlabel{appdix:second}{{\MakeUppercase    []{β\anw@true  \anw@print  \relax }}{51}{Δεύτερο παράρτημα}{appendix.Alph2}{}}
\newlabel{appdix:second@cref}{{[appendix][2][2147483647]\MakeUppercase    []{β\anw@true  \anw@print  \relax }}{[1][51][]51}}
\citation{*}
\bibstyle{plain}
\bibdata{ref}
\bibcite{ahmed_facial_2019}{1}
\bibcite{chelali_face_2015}{2}
\bibcite{phon-amnuaisuk_facial_2017}{3}
\bibcite{dagar_automatic_2016}{4}
\bibcite{dai_attentional_2021}{5}
\bibcite{fernandes_constructive_2014}{6}
\newlabel{sec:references}{{\MakeUppercase    []{β\anw@true  \anw@print  \relax }}{52}{Δεύτερο παράρτημα}{section*.24}{}}
\newlabel{sec:references@cref}{{[appendix][2][2147483647]\MakeUppercase    []{β\anw@true  \anw@print  \relax }}{[1][52][]52}}
\@writefile{toc}{\contentsline {section}{References}{52}{section*.24}\protected@file@percent }
\@writefile{toc}{\contentsline {chapter}{Βιβλιογραφία}{52}{section*.25}\protected@file@percent }
\bibcite{sddp}{7}
\bibcite{jeong_drivers_2018}{8}
\bibcite{kulkarni_facial_2009}{9}
\bibcite{liu_video-based_2020}{10}
\bibcite{liu2021c}{11}
\bibcite{liu_swin_2021}{12}
\bibcite{lucey_extended_2010}{13}
\bibcite{maglogiannis_face_2009}{14}
\bibcite{mehendale_facial_2020}{15}
\bibcite{phung_pyramidal_2007}{16}
\bibcite{pranav_facial_2020}{17}
\bibcite{prieto_emotion_2018}{18}
\bibcite{rajesh_robust_2016}{19}
\bibcite{razuri_automatic_2013}{20}
\bibcite{reney_efficient_2015}{21}
\bibcite{srinivas_bottleneck_2021}{22}
\bibcite{vaswani_attention_2023}{23}
\bibcite{wang_unsupervised_2018}{24}
\bibcite{wu_cvt_2021}{25}
\bibcite{yang_emotion_2018}{26}
\bibcite{campilho_facial_2018}{27}
\bibcite{zeng_deep_2018}{28}
\bibcite{zhang_face_2019}{29}
\gdef \@abspage@last{74}
